{
    "items": [
        {
            "album": {
                "album_type": "album",
                "artists": [
                    {
                        "external_urls": {
                            "spotify": "https://open.spotify.com/artist/5puG0e0w7rzoDnPMlNhoFz"
                        },
                        "href": "https://api.spotify.com/v1/artists/5puG0e0w7rzoDnPMlNhoFz",
                        "id": "5puG0e0w7rzoDnPMlNhoFz",
                        "name": "Tonciu",
                        "type": "artist",
                        "uri": "spotify:artist:5puG0e0w7rzoDnPMlNhoFz"
                    }
                ],
                "available_markets": [
                    "AR",
                    "AU",
                    "AT",
                    "BE",
                    "BO",
                    "BR",
                    "BG",
                    "CA",
                    "CL",
                    "CO",
                    "CR",
                    "CY",
                    "CZ",
                    "DK",
                    "DO",
                    "DE",
                    "EC",
                    "EE",
                    "SV",
                    "FI",
                    "FR",
                    "GR",
                    "GT",
                    "HN",
                    "HK",
                    "HU",
                    "IS",
                    "IE",
                    "IT",
                    "LV",
                    "LT",
                    "LU",
                    "MY",
                    "MT",
                    "MX",
                    "NL",
                    "NZ",
                    "NI",
                    "NO",
                    "PA",
                    "PY",
                    "PE",
                    "PH",
                    "PL",
                    "PT",
                    "SG",
                    "SK",
                    "ES",
                    "SE",
                    "CH",
                    "TW",
                    "TR",
                    "UY",
                    "US",
                    "GB",
                    "AD",
                    "LI",
                    "MC",
                    "ID",
                    "JP",
                    "TH",
                    "VN",
                    "RO",
                    "IL",
                    "ZA",
                    "SA",
                    "AE",
                    "BH",
                    "QA",
                    "OM",
                    "KW",
                    "EG",
                    "MA",
                    "DZ",
                    "TN",
                    "LB",
                    "JO",
                    "PS",
                    "IN",
                    "BY",
                    "KZ",
                    "MD",
                    "UA",
                    "AL",
                    "BA",
                    "HR",
                    "ME",
                    "MK",
                    "RS",
                    "SI",
                    "KR",
                    "BD",
                    "PK",
                    "LK",
                    "GH",
                    "KE",
                    "NG",
                    "TZ",
                    "UG",
                    "AG",
                    "AM",
                    "BS",
                    "BB",
                    "BZ",
                    "BT",
                    "BW",
                    "BF",
                    "CV",
                    "CW",
                    "DM",
                    "FJ",
                    "GM",
                    "GE",
                    "GD",
                    "GW",
                    "GY",
                    "HT",
                    "JM",
                    "KI",
                    "LS",
                    "LR",
                    "MW",
                    "MV",
                    "ML",
                    "MH",
                    "FM",
                    "NA",
                    "NR",
                    "NE",
                    "PW",
                    "PG",
                    "PR",
                    "WS",
                    "SM",
                    "ST",
                    "SN",
                    "SC",
                    "SL",
                    "SB",
                    "KN",
                    "LC",
                    "VC",
                    "SR",
                    "TL",
                    "TO",
                    "TT",
                    "TV",
                    "VU",
                    "AZ",
                    "BN",
                    "BI",
                    "KH",
                    "CM",
                    "TD",
                    "KM",
                    "GQ",
                    "SZ",
                    "GA",
                    "GN",
                    "KG",
                    "LA",
                    "MO",
                    "MR",
                    "MN",
                    "NP",
                    "RW",
                    "TG",
                    "UZ",
                    "ZW",
                    "BJ",
                    "MG",
                    "MU",
                    "MZ",
                    "AO",
                    "CI",
                    "DJ",
                    "ZM",
                    "CD",
                    "CG",
                    "IQ",
                    "LY",
                    "TJ",
                    "VE",
                    "ET",
                    "XK"
                ],
                "external_urls": {
                    "spotify": "https://open.spotify.com/album/3xLRRy4uoJWWI6BxYZDaBG"
                },
                "href": "https://api.spotify.com/v1/albums/3xLRRy4uoJWWI6BxYZDaBG",
                "id": "3xLRRy4uoJWWI6BxYZDaBG",
                "images": [
                    {
                        "height": 640,
                        "url": "https://i.scdn.co/image/ab67616d0000b2730115df51ceb2b8139881d61f",
                        "width": 640
                    },
                    {
                        "height": 300,
                        "url": "https://i.scdn.co/image/ab67616d00001e020115df51ceb2b8139881d61f",
                        "width": 300
                    },
                    {
                        "height": 64,
                        "url": "https://i.scdn.co/image/ab67616d000048510115df51ceb2b8139881d61f",
                        "width": 64
                    }
                ],
                "is_playable": true,
                "name": "Twarde narkotyki",
                "release_date": "2024-12-31",
                "release_date_precision": "day",
                "total_tracks": 8,
                "type": "album",
                "uri": "spotify:album:3xLRRy4uoJWWI6BxYZDaBG"
            },
            "artists": [
                {
                    "external_urls": {
                        "spotify": "https://open.spotify.com/artist/5puG0e0w7rzoDnPMlNhoFz"
                    },
                    "href": "https://api.spotify.com/v1/artists/5puG0e0w7rzoDnPMlNhoFz",
                    "id": "5puG0e0w7rzoDnPMlNhoFz",
                    "name": "Tonciu",
                    "type": "artist",
                    "uri": "spotify:artist:5puG0e0w7rzoDnPMlNhoFz"
                }
            ],
            "available_markets": [
                "AR",
                "AU",
                "AT",
                "BE",
                "BO",
                "BR",
                "BG",
                "CA",
                "CL",
                "CO",
                "CR",
                "CY",
                "CZ",
                "DK",
                "DO",
                "DE",
                "EC",
                "EE",
                "SV",
                "FI",
                "FR",
                "GR",
                "GT",
                "HN",
                "HK",
                "HU",
                "IS",
                "IE",
                "IT",
                "LV",
                "LT",
                "LU",
                "MY",
                "MT",
                "MX",
                "NL",
                "NZ",
                "NI",
                "NO",
                "PA",
                "PY",
                "PE",
                "PH",
                "PL",
                "PT",
                "SG",
                "SK",
                "ES",
                "SE",
                "CH",
                "TW",
                "TR",
                "UY",
                "US",
                "GB",
                "AD",
                "LI",
                "MC",
                "ID",
                "JP",
                "TH",
                "VN",
                "RO",
                "IL",
                "ZA",
                "SA",
                "AE",
                "BH",
                "QA",
                "OM",
                "KW",
                "EG",
                "MA",
                "DZ",
                "TN",
                "LB",
                "JO",
                "PS",
                "IN",
                "BY",
                "KZ",
                "MD",
                "UA",
                "AL",
                "BA",
                "HR",
                "ME",
                "MK",
                "RS",
                "SI",
                "KR",
                "BD",
                "PK",
                "LK",
                "GH",
                "KE",
                "NG",
                "TZ",
                "UG",
                "AG",
                "AM",
                "BS",
                "BB",
                "BZ",
                "BT",
                "BW",
                "BF",
                "CV",
                "CW",
                "DM",
                "FJ",
                "GM",
                "GE",
                "GD",
                "GW",
                "GY",
                "HT",
                "JM",
                "KI",
                "LS",
                "LR",
                "MW",
                "MV",
                "ML",
                "MH",
                "FM",
                "NA",
                "NR",
                "NE",
                "PW",
                "PG",
                "PR",
                "WS",
                "SM",
                "ST",
                "SN",
                "SC",
                "SL",
                "SB",
                "KN",
                "LC",
                "VC",
                "SR",
                "TL",
                "TO",
                "TT",
                "TV",
                "VU",
                "AZ",
                "BN",
                "BI",
                "KH",
                "CM",
                "TD",
                "KM",
                "GQ",
                "SZ",
                "GA",
                "GN",
                "KG",
                "LA",
                "MO",
                "MR",
                "MN",
                "NP",
                "RW",
                "TG",
                "UZ",
                "ZW",
                "BJ",
                "MG",
                "MU",
                "MZ",
                "AO",
                "CI",
                "DJ",
                "ZM",
                "CD",
                "CG",
                "IQ",
                "LY",
                "TJ",
                "VE",
                "ET",
                "XK"
            ],
            "disc_number": 1,
            "duration_ms": 263053,
            "explicit": true,
            "external_ids": {
                "isrc": "PL6B02481271"
            },
            "external_urls": {
                "spotify": "https://open.spotify.com/track/6tPmz2Zm4kNDi9WxMjpZM5"
            },
            "href": "https://api.spotify.com/v1/tracks/6tPmz2Zm4kNDi9WxMjpZM5",
            "id": "6tPmz2Zm4kNDi9WxMjpZM5",
            "is_local": false,
            "is_playable": true,
            "name": "Chcę widzieć tylko ogień",
            "popularity": 9,
            "preview_url": null,
            "track_number": 7,
            "type": "track",
            "uri": "spotify:track:6tPmz2Zm4kNDi9WxMjpZM5"
        }
    ],
    "total": 2530,
    "limit": 1,
    "offset": 0,
    "href": "https://api.spotify.com/v1/me/top/tracks?limit=1&time_range=medium_term",
    "next": "https://api.spotify.com/v1/me/top/tracks?offset=1&limit=1&time_range=medium_term",
    "previous": null
}